line_001
#line_001-part_001
#line_001-part_002
#line_001-part_003
#line_001-part_004
#line_001-part_005
#line_001-part_006
#line_001-part_007
#line_001-part_008
#line_001-part_009
#line_001-part_010
#line_001-part_011
#line_001-part_012
#line_001-part_013
#line_001-part_014
line_002
#line_002-part_001
#line_002-part_002
#line_002-part_003
#line_002-part_004
#line_002-part_005
#line_002-part_006
#line_002-part_007
#line_002-part_008
#line_002-part_009
#line_002-part_010
#line_002-part_011
#line_002-part_012
#line_002-part_013
#line_002-part_014
line_003
#line_003-part_001
#line_003-part_002
#line_003-part_003
#line_003-part_004
#line_003-part_005
#line_003-part_006
#line_003-part_007
#line_003-part_008
#line_003-part_009
#line_003-part_010
#line_003-part_011
#line_003-part_012
line_004
#line_004-part_001
#line_004-part_002
#line_004-part_003
#line_004-part_004
#line_004-part_005
#line_004-part_006
#line_004-part_007
#line_004-part_008
#line_004-part_009
#line_004-part_010
#line_004-part_011
#line_004-part_012
#line_004-part_013
#line_004-part_014
line_005
#line_005-part_001
#line_005-part_002
#line_005-part_003
#line_005-part_004
#line_005-part_005
#line_005-part_006
#line_005-part_007
#line_005-part_008
#line_005-part_009
#line_005-part_010
#line_005-part_011
#line_005-part_012
#line_005-part_013
#line_005-part_014
line_006
#line_006-part_001
#line_006-part_002
#line_006-part_003
#line_006-part_004
#line_006-part_005
#line_006-part_006
#line_006-part_007
#line_006-part_008
#line_006-part_009
#line_006-part_010
#line_006-part_011
#line_006-part_012
#line_006-part_013
#line_006-part_014
#line_006-part_015
#line_006-part_016
#line_006-part_017
line_007
#line_007-part_001
#line_007-part_002
#line_007-part_003
#line_007-part_004
#line_007-part_005
#line_007-part_006
#line_007-part_007
#line_007-part_008
#line_007-part_009
#line_007-part_010
#line_007-part_011
#line_007-part_012
#line_007-part_013
#line_007-part_014
#line_007-part_015
