subject_id,class_id
1003,0
1016,0
1019,0
1033,0
1040,0
1058,0
1065,0
1073,0
1075,0
1090,0
1095,0
1109,0
1145,0
1160,0
1169,0
1186,0
1187,0
1189,0
1209,0
1235,0
1254,0
1255,0
1257,0
1258,0
1263,0
1271,0
1274,0
1284,0
1314,0
1318,0
1322,0
1345,0
1377,0
1380,0
1398,0
1009,1
1021,1
1038,1
1082,1
1113,1
1115,1
1134,1
1166,1
1174,1
1300,1
1312,1
1349,1
1350,1
1405,1
1417,1
1421,1
1459,1
1476,1
1571,1
1582,1
1591,1
1626,1
1693,1
1729,1
1744,1
1760,1
1858,1
1859,1
1869,1
1879,1
1903,1
1913,1
1929,1
1993,1
1996,1
